CommitID,LocalRepoName,TargetDirectory
e72e18b0656fea8f7c693151a1863e88d329a84c,enums,lib\vs\core
d5dc3c8898c1b79120a466e330ab270f82302cf8,std,lib\vs\core
1c8fd4ee2f4ee965383686408d842a77822574da,Charting,lib\vs\visual
8e590843ef38e66b37544dd9f1a294b6f9268062,signals,lib\vs\algorithms
17d6cb8b314e906f0e91a23acf04c7521e2fe96c,ide,libraries\vs\core
